{
  "providers": [
    {
      "type": "bitmap",
      "file": "machape:custom/admin.png",
      "ascent": 8,
      "height": 9,
      "chars": ["\uDB80\uDC00"]
    },
    {
      "type": "bitmap",
      "file": "machape:custom/member.png",
      "ascent": 8,
      "height": 9,
      "chars": ["\uDB80\uDC01"]
    },
    {
      "type": "bitmap",
      "file": "machape:custom/machape1.png",
      "ascent": 8,
      "height": 9,
      "chars": ["\uDB80\uDC02"]
    },
    {
      "type": "bitmap",
      "file": "machape:custom/omni.png",
      "ascent": 8,
      "height": 9,
      "chars": ["\uDB80\uDC03"]
    },
    {
      "type": "bitmap",
      "file": "machape:custom/logo.png",
      "ascent": 13,
      "height": 59,
      "chars": ["\uDB80\uDC04"]
    },

    {
      "type": "bitmap",
      "file": "machape:custom/rangos_pranks.png",
      "ascent": 8,
      "height": 9,
      "chars": ["\uDB80\uDC05\uDB80\uDC06\uDB80\uDC07\uDB80\uDC08"]
    },
    {
      "type": "bitmap",
      "file": "machape:custom/dev_icon.png",
      "ascent": 8,
      "height": 9,
      "chars": ["\uDB80\uDC09"]
    },
    {
      "type": "bitmap",
      "file": "machape:custom/tester_rank.png",
      "ascent": 8,
      "height": 9,
      "chars": ["\uDB80\uDC10"]
    },
    {
      "type": "bitmap",
      "file": "machape:custom/invitado.png",
      "ascent": 8,
      "height": 9,
      "chars": ["\uDB80\uDC11"]
    },
    {
      "type": "bitmap",
      "file": "machape:custom/mod_rank.png",
      "ascent": 8,
      "height": 9,
      "chars": ["\uDB80\uDC12"]
    }
  ]
}
