{
	"parent": "minecraft:block/command_block",
	"overrides": [
		{
			"predicate": { "custom_model_data": 1 },
			"model": "machape:micelaneus/gold_coin"
		},
		{
			"predicate": { "custom_model_data": 2 },
			"model": "machape:micelaneus/silver_coin"
		},
		{
			"predicate": { "custom_model_data": 3 },
			"model": "machape:micelaneus/copper_coin"
		},
		{
			"predicate": { "custom_model_data": 4 },
			"model": "machape:etharite/etharite"
		},
		{
			"predicate": { "custom_model_data": 5 },
			"model": "machape:micelaneus/gold_mdeal"
		},
		{
			"predicate": { "custom_model_data": 6 },
			"model": "machape:micelaneus/silver_medal"
		},
		{
			"predicate": { "custom_model_data": 7 },
			"model": "machape:micelaneus/copper_medal"
		},
		{
			"predicate": { "custom_model_data": 1701 },
			"model": "rune:rune"
		}
	]
}
