{
  "parent": "item/handheld",
  "textures": {
    "layer0": "item/netherite_shovel"
  },
  "overrides": [
    {
      "predicate": { "custom_model_data": 1 },
      "model": "machape:etharite/etharite_shovel"
    }
  ]
}
s